{
    "count":"int",
    "data": [
        {
            "_id": "String",
            "company_username": "String",
            "date_of_birth": "String",
            "department": "String",
            "emails": [
                "String"
            ],
            "phones": [{
                "number": "String",
                "code": "String",
                "type": "String - ???"
            }],
            "work_start": "String",
            "first_name": "String",
            "image_profile": "String",
            "last_name": "String",
            "nickname": "String",
            "position": "String",
            "qr_image_path": "String"
        }
    ]
}